{
    "count": 78854,
    "next": "https://wger.de/api/v2/ingredient/?format=json&limit=20&offset=20",
    "previous": null,
    "results": [
        {
            "id": 77897,
            "code": "8801043020756",
            "name": "감자깡",
            "creation_date": "2020-12-20",
            "update_date": "2020-12-20",
            "energy": 470,
            "protein": "6.000",
            "carbohydrates": "72.000",
            "carbohydrates_sugar": "4.000",
            "fat": "18.000",
            "fat_saturated": "6.000",
            "fibres": null,
            "sodium": "0.508",
            "license": 5,
            "license_author": "Open Food Facts",
            "language": 2
        },
        {
            "id": 73598,
            "code": "8410384053073",
            "name": "0.0% Alcohol Free Sparkling Rosé",
            "creation_date": "2020-12-20",
            "update_date": "2020-12-20",
            "energy": 25,
            "protein": "0.000",
            "carbohydrates": "6.000",
            "carbohydrates_sugar": "5.400",
            "fat": "0.000",
            "fat_saturated": "0.000",
            "fibres": null,
            "sodium": "0.004",
            "license": 5,
            "license_author": "Open Food Facts",
            "language": 2
        },
        {
            "id": 73073,
            "code": "8410014238450",
            "name": "0% azúcares",
            "creation_date": "2020-12-20",
            "update_date": "2020-12-20",
            "energy": 51,
            "protein": "3.700",
            "carbohydrates": "7.100",
            "carbohydrates_sugar": "4.800",
            "fat": "0.600",
            "fat_saturated": "0.400",
            "fibres": "1.200",
            "sodium": "0.052",
            "license": 5,
            "license_author": "Open Food Facts",
            "language": 4
        },
        {
            "id": 68737,
            "code": "7501761848861",
            "name": "0% azúcar manzana y canela",
            "creation_date": "2020-12-20",
            "update_date": "2020-12-20",
            "energy": 366,
            "protein": "8.700",
            "carbohydrates": "72.000",
            "carbohydrates_sugar": "8.700",
            "fat": "4.200",
            "fat_saturated": "0.900",
            "fibres": "2.700",
            "sodium": "0.136",
            "license": 5,
            "license_author": "Open Food Facts",
            "language": 4
        },
        {
            "id": 63359,
            "code": "5390053001372",
            "name": "0% Fat Greek Style Live Yogurt with Strawberries",
            "creation_date": "2020-12-20",
            "update_date": "2020-12-20",
            "energy": 44,
            "protein": "4.400",
            "carbohydrates": "5.800",
            "carbohydrates_sugar": "4.000",
            "fat": "0.200",
            "fat_saturated": "0.100",
            "fibres": "0.500",
            "sodium": "0.072",
            "license": 5,
            "license_author": "Open Food Facts",
            "language": 2
        },
        {
            "id": 11206,
            "code": "00975957",
            "name": "0% fat Greek style yogurt",
            "creation_date": "2020-12-20",
            "update_date": "2020-12-20",
            "energy": 131,
            "protein": "5.700",
            "carbohydrates": "18.600",
            "carbohydrates_sugar": "10.200",
            "fat": "3.300",
            "fat_saturated": "0.900",
            "fibres": "0.500",
            "sodium": "0.040",
            "license": 5,
            "license_author": "Open Food Facts",
            "language": 2
        },
        {
            "id": 62759,
            "code": "5054402745989",
            "name": "0% Fat Greek Yoghurt",
            "creation_date": "2020-12-20",
            "update_date": "2020-12-20",
            "energy": 105,
            "protein": "9.300",
            "carbohydrates": "5.500",
            "carbohydrates_sugar": "5.500",
            "fat": "0.500",
            "fat_saturated": "0.300",
            "fibres": null,
            "sodium": "0.200",
            "license": 5,
            "license_author": "Open Food Facts",
            "language": 2
        },
        {
            "id": 11537,
            "code": "0297274306956",
            "name": "1,000 Day Gouda Cheese",
            "creation_date": "2020-12-20",
            "update_date": "2020-12-20",
            "energy": 120,
            "protein": "8.000",
            "carbohydrates": "0.000",
            "carbohydrates_sugar": "0.000",
            "fat": "10.000",
            "fat_saturated": "7.000",
            "fibres": "0.000",
            "sodium": "0.264",
            "license": 5,
            "license_author": "Open Food Facts",
            "language": 2
        },
        {
            "id": 55114,
            "code": "4005967511077",
            "name": "1001 Nacht Haferbrei",
            "creation_date": "2020-12-20",
            "update_date": "2020-12-20",
            "energy": 351,
            "protein": "10.400",
            "carbohydrates": "61.100",
            "carbohydrates_sugar": "17.100",
            "fat": "5.100",
            "fat_saturated": "1.000",
            "fibres": "9.300",
            "sodium": "0.008",
            "license": 5,
            "license_author": "Open Food Facts",
            "language": 1
        },
        {
            "id": 61972,
            "code": "5010251593188",
            "name": "100% Apple & Mango",
            "creation_date": "2020-12-20",
            "update_date": "2020-12-20",
            "energy": 190,
            "protein": "0.100",
            "carbohydrates": "11.000",
            "carbohydrates_sugar": "10.400",
            "fat": "0.000",
            "fat_saturated": "0.000",
            "fibres": "0.800",
            "sodium": "0.000",
            "license": 5,
            "license_author": "Open Food Facts",
            "language": 2
        },
        {
            "id": 59429,
            "code": "4260249140776",
            "name": "100% banane & himbeere",
            "creation_date": "2020-12-20",
            "update_date": "2020-12-20",
            "energy": 334,
            "protein": "6.900",
            "carbohydrates": "56.900",
            "carbohydrates_sugar": "51.300",
            "fat": "1.400",
            "fat_saturated": "0.100",
            "fibres": "11.000",
            "sodium": "0.020",
            "license": 5,
            "license_author": "Open Food Facts",
            "language": 1
        },
        {
            "id": 32661,
            "code": "3263852510111",
            "name": "100 biscottes",
            "creation_date": "2020-12-20",
            "update_date": "2020-12-20",
            "energy": 385,
            "protein": "11.000",
            "carbohydrates": "72.000",
            "carbohydrates_sugar": "6.900",
            "fat": "4.900",
            "fat_saturated": "0.700",
            "fibres": "4.400",
            "sodium": "0.560",
            "license": 5,
            "license_author": "Open Food Facts",
            "language": 12
        },
        {
            "id": 50218,
            "code": "3700311800890",
            "name": "100 Biscottes",
            "creation_date": "2020-12-20",
            "update_date": "2020-12-20",
            "energy": 397,
            "protein": "10.000",
            "carbohydrates": "76.000",
            "carbohydrates_sugar": "8.200",
            "fat": "5.100",
            "fat_saturated": "2.100",
            "fibres": "3.400",
            "sodium": "0.520",
            "license": 5,
            "license_author": "Open Food Facts",
            "language": 12
        },
        {
            "id": 10981,
            "code": "0082592720153",
            "name": "100% boosted juice smoothie",
            "creation_date": "2020-12-20",
            "update_date": "2020-12-20",
            "energy": 60,
            "protein": "0.890",
            "carbohydrates": "14.000",
            "carbohydrates_sugar": "11.780",
            "fat": "0.000",
            "fat_saturated": "0.000",
            "fibres": "0.000",
            "sodium": "0.006",
            "license": 5,
            "license_author": "Open Food Facts",
            "language": 2
        },
        {
            "id": 17895,
            "code": "3023260020233",
            "name": "100 % Brebis Léger (9 % MG)",
            "creation_date": "2020-12-20",
            "update_date": "2020-12-20",
            "energy": 161,
            "protein": "19.000",
            "carbohydrates": "0.900",
            "carbohydrates_sugar": "0.900",
            "fat": "9.000",
            "fat_saturated": "6.400",
            "fibres": null,
            "sodium": "1.136",
            "license": 5,
            "license_author": "Open Food Facts",
            "language": 12
        },
        {
            "id": 23632,
            "code": "3222473156580",
            "name": "100% Cacao",
            "creation_date": "2020-12-20",
            "update_date": "2020-12-20",
            "energy": 360,
            "protein": "20.000",
            "carbohydrates": "8.800",
            "carbohydrates_sugar": "0.500",
            "fat": "21.000",
            "fat_saturated": "13.000",
            "fibres": "28.000",
            "sodium": "0.028",
            "license": 5,
            "license_author": "Open Food Facts",
            "language": 12
        },
        {
            "id": 48121,
            "code": "3596710427192",
            "name": "100% Cacao Boissons et Pâtisseries",
            "creation_date": "2020-12-20",
            "update_date": "2020-12-20",
            "energy": 385,
            "protein": "22.000",
            "carbohydrates": "12.000",
            "carbohydrates_sugar": "1.900",
            "fat": "21.000",
            "fat_saturated": "13.000",
            "fibres": "30.000",
            "sodium": "0.020",
            "license": 5,
            "license_author": "Open Food Facts",
            "language": 12
        },
        {
            "id": 46395,
            "code": "3564707138628",
            "name": "100% cacao maigre non sucré",
            "creation_date": "2020-12-20",
            "update_date": "2020-12-20",
            "energy": 330,
            "protein": "28.000",
            "carbohydrates": "15.000",
            "carbohydrates_sugar": "0.500",
            "fat": "11.000",
            "fat_saturated": "6.900",
            "fibres": "31.000",
            "sodium": "0.000",
            "license": 5,
            "license_author": "Open Food Facts",
            "language": 12
        },
        {
            "id": 18949,
            "code": "3036850776410",
            "name": "100% cacao non sucré",
            "creation_date": "2020-12-20",
            "update_date": "2020-12-20",
            "energy": 367,
            "protein": "19.000",
            "carbohydrates": "12.000",
            "carbohydrates_sugar": "1.900",
            "fat": "21.000",
            "fat_saturated": "13.000",
            "fibres": "27.000",
            "sodium": "0.020",
            "license": 5,
            "license_author": "Open Food Facts",
            "language": 12
        },
        {
            "id": 11566,
            "code": "03718766",
            "name": "100 % choux fleurs",
            "creation_date": "2020-12-20",
            "update_date": "2020-12-20",
            "energy": 22,
            "protein": "1.300",
            "carbohydrates": "2.200",
            "carbohydrates_sugar": "1.400",
            "fat": "0.400",
            "fat_saturated": "0.100",
            "fibres": "2.000",
            "sodium": "0.012",
            "license": 5,
            "license_author": "Open Food Facts",
            "language": 12
        }
    ]
}